<svg width="25" height="17" viewBox="0 0 25 17" fill="none" xmlns="http://www.w3.org/2000/svg">
<path d="M21.7939 8.66602L1.79395 8.66602" stroke="white" stroke-width="2" stroke-linecap="square" stroke-linejoin="round"/>
<path d="M16.5391 15.333L23.2057 8.66634L16.5391 1.99967" stroke="white" stroke-width="2" stroke-linecap="square" stroke-linejoin="round"/>
</svg>
